…
    ## `summarise()` has grouped output by 'GeneID'. You can override using the
    ## `.groups` argument.

    ## # A tibble: 24 × 6
    ##    rna_type sequencing FPM_above     n Ntotal  nper
    ##    <fct>    <chr>      <chr>     <int>  <int> <dbl>
    ##  1 lncRNA   char       0.1        3474  17142 20.3 
    ##  2 lncRNA   char       1          1143  17142  6.67
    ##  3 lncRNA   char       10          173  17142  1.01
    ##  4 lncRNA   rna        0.1        2580  17142 15.1 
    ##  5 lncRNA   rna        1           893  17142  5.21
    ##  6 lncRNA   rna        10          173  17142  1.01
    ##  7 mRNA     char       0.1        3292  19864 16.6 
    ##  8 mRNA     char       1          7579  19864 38.2 
    ##  9 mRNA     char       10         4143  19864 20.9 
    ## 10 mRNA     rna        0.1        2292  19864 11.5 
    ## # … with 14 more rows
…
