…
``` r
deloc_df <- delocdata %>%
  left_join(exprdata %>% dplyr::select(GeneID,annotation_type, FPM.ES.char,FPM.DE.char) %>% 
              dplyr::rename(FPM_ES = FPM.ES.char, FPM_DE=FPM.DE.char) %>% pivot_longer(-c(GeneID, annotation_type), names_to = "cell", values_to="FPM", names_prefix="FPM_"), by = c("cell", "annotation_type","GeneID")) %>%
  mutate(deloc_score_type = factor(substr(deloc_score_type, 7, length(deloc_score_type)), levels = c("trans","cis"))) %>%
  mutate(rna_type = if_else(rna_type=='ncRNA', rna_subtype, rna_type))
```

``` r
deloc_df
```

    ## # A tibble: 242,505 × 19
    ##    deloc_score_type cell  GeneID      annotation_type name  rna_type rna_subtype
    ##    <fct>            <chr> <chr>       <chr>           <chr> <chr>    <chr>      
    ##  1 trans            DE    ENSG000002… exons           SNHG… lncRNA   lncRNA     
    ##  2 trans            DE    ENSG000002… exons           SNOR… snoRNA   snoRNA     
    ##  3 trans            DE    ENSG000002… exons           SNOR… snoRNA   snoRNA     
    ##  4 trans            DE    ENSG000002… exons           SNOR… snoRNA   snoRNA     
    ##  5 trans            DE    ENSG000002… exons           MIR4… miRNA    miRNA      
    ##  6 trans            DE    ENSG000002… exons           SCAR… snoRNA   snoRNA     
    ##  7 trans            DE    ENSG000002… exons           SNOR… snoRNA   snoRNA     
    ##  8 trans            DE    ENSG000002… exons           RNU5… snRNA    snRNA      
    ##  9 trans            DE    ENSG000002… exons           SNOR… snoRNA   snoRNA     
    ## 10 trans            DE    ENSG000002… exons           SNOR… snoRNA   snoRNA     
    ## # … with 242,495 more rows, and 12 more variables: ambiguous <dbl>,
    ## #   delocalization_score.calibrated <dbl>, delocalization_score.raw <dbl>,
    ## #   r.est <dbl>, r.obs <dbl>, Nnear <dbl>, Nfar <dbl>, p.high <dbl>,
    ## #   p.low <dbl>, p.high.corr <dbl>, p.low.corr <dbl>, FPM <dbl>
…
