…
  cts_ncrna_diff
```

```
## # A tibble: 25 × 4
##    sequencing annotation_type.src rna_type.src     n
##    <chr>      <chr>               <chr>        <int>
##  1 exp        introns             mRNA          4317
##  2 obs        introns             mRNA          3380
##  3 exp        intergenic          readthrough   1319
##  4 obs        intergenic          readthrough   1001
##  5 exp        exons               mRNA           751
##  6 exp        introns             lncRNA         646
##  7 exp        intergenic          cre            639
##  8 obs        exons               mRNA           542
##  9 obs        introns             lncRNA         519
## 10 obs        intergenic          cre            497
## # … with 15 more rows
```
…
